// 20180216164337
// https://api.steama.co/bitharvesters/99596/meters/?format=json

{
  "count": 95,
  "next": "https://api.steama.co/bitharvesters/99596/meters/?format=json&page=2",
  "previous": null,
  "results": [
    {
      "id": 6500,
      "url": "https://api.steama.co/bitharvesters/99596/meters/6500/?format=json",
      "name": "423 - 1",
      "reference": "423-1",
      "utility": 1,
      "utility_url": "https://api.steama.co/bitharvesters/99596/meters/6500/utilities/1/?format=json",
      "utility_name": "Electricity",
      "customer": 1474777,
      "customer_url": "https://api.steama.co/customers/1474745/?format=json",
      "customer_name": "Wilson  Ngai Mutuamali",
      "connection_is_on": false,
      "pulse_ratio": 1.0,
      "power_limit": null,
      "power_limit_triggered": false
    },
    {
      "id": 6501,
      "url": "https://api.steama.co/bitharvesters/99596/meters/6501/?format=json",
      "name": "425 - 1",
      "reference": "425-1",
      "utility": 1,
      "utility_url": "https://api.steama.co/bitharvesters/99596/meters/6501/utilities/1/?format=json",
      "utility_name": "Electricity",
      "customer": 1474811,
      "customer_url": "https://api.steama.co/customers/1474811/?format=json",
      "customer_name": "Charles Gitari Muriungi",
      "connection_is_on": true,
      "pulse_ratio": 1.0,
      "power_limit": null,
      "power_limit_triggered": false
    },
    {
      "id": 6933,
      "url": "https://api.steama.co/bitharvesters/99596/meters/6933/?format=json",
      "name": "426 - 1",
      "reference": "426-1",
      "utility": 1,
      "utility_url": "https://api.steama.co/bitharvesters/99596/meters/6933/utilities/1/?format=json",
      "utility_name": "Electricity",
      "customer": 1474816,
      "customer_url": "https://api.steama.co/customers/1474816/?format=json",
      "customer_name": "Kellyjoy Kathure",
      "connection_is_on": true,
      "pulse_ratio": 1.0,
      "power_limit": null,
      "power_limit_triggered": false
    },
    {
      "id": 6502,
      "url": "https://api.steama.co/bitharvesters/99596/meters/6502/?format=json",
      "name": "427 - 1",
      "reference": "427-1",
      "utility": 1,
      "utility_url": "https://api.steama.co/bitharvesters/99596/meters/6502/utilities/1/?format=json",
      "utility_name": "Electricity",
      "customer": 1474797,
      "customer_url": "https://api.steama.co/customers/1474797/?format=json",
      "customer_name": "Stephen Mutegi Irauka",
      "connection_is_on": true,
      "pulse_ratio": 1.0,
      "power_limit": null,
      "power_limit_triggered": false
    },
    {
      "id": 6503,
      "url": "https://api.steama.co/bitharvesters/99596/meters/6503/?format=json",
      "name": "429 - 1",
      "reference": "429-1",
      "utility": 1,
      "utility_url": "https://api.steama.co/bitharvesters/99596/meters/6503/utilities/1/?format=json",
      "utility_name": "Electricity",
      "customer": 1472266,
      "customer_url": "https://api.steama.co/customers/1472266/?format=json",
      "customer_name": "Sammy Kinyua Ngai",
      "connection_is_on": true,
      "pulse_ratio": 1.0,
      "power_limit": null,
      "power_limit_triggered": false
    },
    {
      "id": 6504,
      "url": "https://api.steama.co/bitharvesters/99596/meters/6504/?format=json",
      "name": "430 - 1",
      "reference": "430-1",
      "utility": 1,
      "utility_url": "https://api.steama.co/bitharvesters/99596/meters/6504/utilities/1/?format=json",
      "utility_name": "Electricity",
      "customer": 1474747,
      "customer_url": "https://api.steama.co/customers/1474747/?format=json",
      "customer_name": "Evans Njiru Mutegi",
      "connection_is_on": true,
      "pulse_ratio": 1.0,
      "power_limit": null,
      "power_limit_triggered": false
    },
    {
      "id": 6505,
      "url": "https://api.steama.co/bitharvesters/99596/meters/6505/?format=json",
      "name": "431 - 1",
      "reference": "431-1",
      "utility": 1,
      "utility_url": "https://api.steama.co/bitharvesters/99596/meters/6505/utilities/1/?format=json",
      "utility_name": "Electricity",
      "customer": 1474752,
      "customer_url": "https://api.steama.co/customers/1474752/?format=json",
      "customer_name": "Gegina Muthoni Rugera",
      "connection_is_on": true,
      "pulse_ratio": 1.0,
      "power_limit": null,
      "power_limit_triggered": false
    },
    {
      "id": 6918,
      "url": "https://api.steama.co/bitharvesters/99596/meters/6918/?format=json",
      "name": "434 - 1",
      "reference": "434-1",
      "utility": 1,
      "utility_url": "https://api.steama.co/bitharvesters/99596/meters/6918/utilities/1/?format=json",
      "utility_name": "Electricity",
      "customer": 1474738,
      "customer_url": "https://api.steama.co/customers/1474738/?format=json",
      "customer_name": "Dorothy Kanyua",
      "connection_is_on": true,
      "pulse_ratio": 1.0,
      "power_limit": null,
      "power_limit_triggered": false
    },
    {
      "id": 6506,
      "url": "https://api.steama.co/bitharvesters/99596/meters/6506/?format=json",
      "name": "436 - 1",
      "reference": "436-1",
      "utility": 1,
      "utility_url": "https://api.steama.co/bitharvesters/99596/meters/6506/utilities/1/?format=json",
      "utility_name": "Electricity",
      "customer": 1471927,
      "customer_url": "https://api.steama.co/customers/1471927/?format=json",
      "customer_name": "Alex Murithi Mutegi",
      "connection_is_on": false,
      "pulse_ratio": 1.0,
      "power_limit": null,
      "power_limit_triggered": false
    },
    {
      "id": 6507,
      "url": "https://api.steama.co/bitharvesters/99596/meters/6507/?format=json",
      "name": "437 - 1",
      "reference": "437-1",
      "utility": 1,
      "utility_url": "https://api.steama.co/bitharvesters/99596/meters/6507/utilities/1/?format=json",
      "utility_name": "Electricity",
      "customer": 1474725,
      "customer_url": "https://api.steama.co/customers/1474725/?format=json",
      "customer_name": "Collins Muchuri Murithi",
      "connection_is_on": true,
      "pulse_ratio": 1.0,
      "power_limit": null,
      "power_limit_triggered": false
    }
  ]
}