{
    "count": 118,
    "next": "http://api.steama.co/customers/?page=2",
    "previous": null,
    "results": [
        {
            "id": 1474777,
            "url": "http://api.steama.co/customers/1474777/",
            "transactions_url": "http://api.steama.co/customers/1474777/transactions/",
            "utilities_url": "http://api.steama.co/customers/1474777/utilities/",
            "telephone": "+254740713744",
            "first_name": "Kenya Local",
            "last_name": "Belivers Church",
            "account_balance": "974.56",
            "energy_price": "80.00",
            "low_balance_warning": "200.00",
            "low_balance_level": "200.00",
            "site_manager": 1474823,
            "site_manager_url": "http://api.steama.co/customers/1474823/",
            "site_manager_telephone": "+254700279979",
            "site": 26015,
            "site_url": "http://api.steama.co/sites/26015/",
            "site_name": "Mutaroni-1",
            "bit_harvester": 99596,
            "bit_harvester_url": "http://api.steama.co/bitharvesters/99596/",
            "bit_harvester_telephone": "+447624171340",
            "control_type": "AUTOC",
            "line_number": "47",
            "is_user": true,
            "is_agent": false,
            "is_site_manager": false,
            "is_field_manager": false,
            "is_demo": false,
            "language": "SWA",
            "user_type": "RES",
            "TOU_hours": "",
            "payment_plan": "High Energy User,100.0",
            "integration_id": "",
            "labels": ""
        },
        {
            "id": 1474812,
            "url": "http://api.steama.co/customers/1474812/",
            "transactions_url": "http://api.steama.co/customers/1474812/transactions/",
            "utilities_url": "http://api.steama.co/customers/1474812/utilities/",
            "telephone": "+254720513222",
            "first_name": "Lenick",
            "last_name": "Bundi Mbaka",
            "account_balance": "823.94",
            "energy_price": "80.00",
            "low_balance_warning": "200.00",
            "low_balance_level": "200.00",
            "site_manager": 1474823,
            "site_manager_url": "http://api.steama.co/customers/1474823/",
            "site_manager_telephone": "+254700279979",
            "site": 26015,
            "site_url": "http://api.steama.co/sites/26015/",
            "site_name": "Mutaroni-1",
            "bit_harvester": 99596,
            "bit_harvester_url": "http://api.steama.co/bitharvesters/99596/",
            "bit_harvester_telephone": "+447624171340",
            "control_type": "AUTOC",
            "line_number": "14",
            "is_user": true,
            "is_agent": false,
            "is_site_manager": false,
            "is_field_manager": false,
            "is_demo": false,
            "language": "SWA",
            "user_type": "RES",
            "TOU_hours": "",
            "payment_plan": "High Energy User,100.0",
            "integration_id": "",
            "labels": ""
        },
        {
            "id": 1471943,
            "url": "http://api.steama.co/customers/1471943/",
            "transactions_url": "http://api.steama.co/customers/1471943/transactions/",
            "utilities_url": "http://api.steama.co/customers/1471943/utilities/",
            "telephone": "+254795878533",
            "first_name": "Beatrice ",
            "last_name": "C Njuki",
            "account_balance": "810.24",
            "energy_price": "80.00",
            "low_balance_warning": "200.00",
            "low_balance_level": "200.00",
            "site_manager": 1474823,
            "site_manager_url": "http://api.steama.co/customers/1474823/",
            "site_manager_telephone": "+254700279979",
            "site": 26015,
            "site_url": "http://api.steama.co/sites/26015/",
            "site_name": "Mutaroni-1",
            "bit_harvester": 99596,
            "bit_harvester_url": "http://api.steama.co/bitharvesters/99596/",
            "bit_harvester_telephone": "+447624171340",
            "control_type": "AUTOC",
            "line_number": "43",
            "is_user": true,
            "is_agent": false,
            "is_site_manager": false,
            "is_field_manager": false,
            "is_demo": false,
            "language": "SWA",
            "user_type": "RES",
            "TOU_hours": "",
            "payment_plan": "",
            "integration_id": "",
            "labels": ""
        },
        {
            "id": 1472259,
            "url": "http://api.steama.co/customers/1472259/",
            "transactions_url": "http://api.steama.co/customers/1472259/transactions/",
            "utilities_url": "http://api.steama.co/customers/1472259/utilities/",
            "telephone": "+254727536081",
            "first_name": "Laima",
            "last_name": "Cekule",
            "account_balance": "1000.00",
            "energy_price": "80.00",
            "low_balance_warning": "200.00",
            "low_balance_level": "75.00",
            "site_manager": 1474823,
            "site_manager_url": "http://api.steama.co/customers/1474823/",
            "site_manager_telephone": "+254700279979",
            "site": 26015,
            "site_url": "http://api.steama.co/sites/26015/",
            "site_name": "Mutaroni-1",
            "bit_harvester": 99596,
            "bit_harvester_url": "http://api.steama.co/bitharvesters/99596/",
            "bit_harvester_telephone": "+447624171340",
            "control_type": "AUTOC",
            "line_number": "",
            "is_user": true,
            "is_agent": true,
            "is_site_manager": true,
            "is_field_manager": true,
            "is_demo": false,
            "language": "SWA",
            "user_type": "RES",
            "TOU_hours": "",
            "payment_plan": "",
            "integration_id": "",
            "labels": ""
        },
        {
            "id": 1474740,
            "url": "http://api.steama.co/customers/1474740/",
            "transactions_url": "http://api.steama.co/customers/1474740/transactions/",
            "utilities_url": "http://api.steama.co/customers/1474740/utilities/",
            "telephone": "+254701271803",
            "first_name": "Edith",
            "last_name": "Ciamikui Mbuba",
            "account_balance": "499.76",
            "energy_price": "80.00",
            "low_balance_warning": "200.00",
            "low_balance_level": "200.00",
            "site_manager": 1474823,
            "site_manager_url": "http://api.steama.co/customers/1474823/",
            "site_manager_telephone": "+254700279979",
            "site": 26015,
            "site_url": "http://api.steama.co/sites/26015/",
            "site_name": "Mutaroni-1",
            "bit_harvester": 99596,
            "bit_harvester_url": "http://api.steama.co/bitharvesters/99596/",
            "bit_harvester_telephone": "+447624171340",
            "control_type": "AUTOC",
            "line_number": "23",
            "is_user": true,
            "is_agent": false,
            "is_site_manager": false,
            "is_field_manager": false,
            "is_demo": false,
            "language": "SWA",
            "user_type": "RES",
            "TOU_hours": "",
            "payment_plan": "High Energy User,100.0",
            "integration_id": "",
            "labels": ""
        },
        {
            "id": 1474750,
            "url": "http://api.steama.co/customers/1474750/",
            "transactions_url": "http://api.steama.co/customers/1474750/transactions/",
            "utilities_url": "http://api.steama.co/customers/1474750/utilities/",
            "telephone": "+254740713775",
            "first_name": "Fedys",
            "last_name": "Cianjoka Ndeke",
            "account_balance": "611.27",
            "energy_price": "80.00",
            "low_balance_warning": "200.00",
            "low_balance_level": "200.00",
            "site_manager": 1474823,
            "site_manager_url": "http://api.steama.co/customers/1474823/",
            "site_manager_telephone": "+254700279979",
            "site": 26015,
            "site_url": "http://api.steama.co/sites/26015/",
            "site_name": "Mutaroni-1",
            "bit_harvester": 99596,
            "bit_harvester_url": "http://api.steama.co/bitharvesters/99596/",
            "bit_harvester_telephone": "+447624171340",
            "control_type": "AUTOC",
            "line_number": "22",
            "is_user": true,
            "is_agent": false,
            "is_site_manager": false,
            "is_field_manager": false,
            "is_demo": false,
            "language": "SWA",
            "user_type": "RES",
            "TOU_hours": "",
            "payment_plan": "High Energy User,100.0",
            "integration_id": "",
            "labels": ""
        },
        {
            "id": 1474771,
            "url": "http://api.steama.co/customers/1474771/",
            "transactions_url": "http://api.steama.co/customers/1474771/transactions/",
            "utilities_url": "http://api.steama.co/customers/1474771/utilities/",
            "telephone": "+254740649273",
            "first_name": "Josphine",
            "last_name": "Dusy Nthiga",
            "account_balance": "270.01",
            "energy_price": "60.00",
            "low_balance_warning": "200.00",
            "low_balance_level": "200.00",
            "site_manager": 1474823,
            "site_manager_url": "http://api.steama.co/customers/1474823/",
            "site_manager_telephone": "+254700279979",
            "site": 26015,
            "site_url": "http://api.steama.co/sites/26015/",
            "site_name": "Mutaroni-1",
            "bit_harvester": 99596,
            "bit_harvester_url": "http://api.steama.co/bitharvesters/99596/",
            "bit_harvester_telephone": "+447624171340",
            "control_type": "AUTOC",
            "line_number": "66",
            "is_user": true,
            "is_agent": false,
            "is_site_manager": false,
            "is_field_manager": false,
            "is_demo": false,
            "language": "SWA",
            "user_type": "RES",
            "TOU_hours": "",
            "payment_plan": "High Energy User,100.0",
            "integration_id": "",
            "labels": ""
        },
        {
            "id": 1474726,
            "url": "http://api.steama.co/customers/1474726/",
            "transactions_url": "http://api.steama.co/customers/1474726/transactions/",
            "utilities_url": "http://api.steama.co/customers/1474726/utilities/",
            "telephone": "+254704559306",
            "first_name": "Gitonga",
            "last_name": "Gakubu",
            "account_balance": "560.94",
            "energy_price": "80.00",
            "low_balance_warning": "200.00",
            "low_balance_level": "200.00",
            "site_manager": 1474823,
            "site_manager_url": "http://api.steama.co/customers/1474823/",
            "site_manager_telephone": "+254700279979",
            "site": 26015,
            "site_url": "http://api.steama.co/sites/26015/",
            "site_name": "Mutaroni-1",
            "bit_harvester": 99596,
            "bit_harvester_url": "http://api.steama.co/bitharvesters/99596/",
            "bit_harvester_telephone": "+447624171340",
            "control_type": "AUTOC",
            "line_number": "56",
            "is_user": true,
            "is_agent": false,
            "is_site_manager": false,
            "is_field_manager": false,
            "is_demo": false,
            "language": "SWA",
            "user_type": "RES",
            "TOU_hours": "",
            "payment_plan": "High Energy User,100.0",
            "integration_id": "",
            "labels": ""
        },
        {
            "id": 1474802,
            "url": "http://api.steama.co/customers/1474802/",
            "transactions_url": "http://api.steama.co/customers/1474802/transactions/",
            "utilities_url": "http://api.steama.co/customers/1474802/utilities/",
            "telephone": "+254707058389",
            "first_name": "Amos",
            "last_name": "Gikundi",
            "account_balance": "39.82",
            "energy_price": "80.00",
            "low_balance_warning": "200.00",
            "low_balance_level": "66.67",
            "site_manager": 1474823,
            "site_manager_url": "http://api.steama.co/customers/1474823/",
            "site_manager_telephone": "+254700279979",
            "site": 26015,
            "site_url": "http://api.steama.co/sites/26015/",
            "site_name": "Mutaroni-1",
            "bit_harvester": 99596,
            "bit_harvester_url": "http://api.steama.co/bitharvesters/99596/",
            "bit_harvester_telephone": "+447624171340",
            "control_type": "AUTOC",
            "line_number": "20",
            "is_user": true,
            "is_agent": false,
            "is_site_manager": false,
            "is_field_manager": false,
            "is_demo": false,
            "language": "SWA",
            "user_type": "RES",
            "TOU_hours": "",
            "payment_plan": "High Energy User,100.0",
            "integration_id": "",
            "labels": ""
        },
        {
            "id": 1474755,
            "url": "http://api.steama.co/customers/1474755/",
            "transactions_url": "http://api.steama.co/customers/1474755/transactions/",
            "utilities_url": "http://api.steama.co/customers/1474755/utilities/",
            "telephone": "+254705219584",
            "first_name": "Hannah",
            "last_name": "Gitari",
            "account_balance": "-617.09",
            "energy_price": "100.00",
            "low_balance_warning": "200.00",
            "low_balance_level": "200.00",
            "site_manager": 1474823,
            "site_manager_url": "http://api.steama.co/customers/1474823/",
            "site_manager_telephone": "+254700279979",
            "site": 26015,
            "site_url": "http://api.steama.co/sites/26015/",
            "site_name": "Mutaroni-1",
            "bit_harvester": 99739,
            "bit_harvester_url": "http://api.steama.co/bitharvesters/99739/",
            "bit_harvester_telephone": "+447624171916",
            "control_type": "AUTOC",
            "line_number": "18",
            "is_user": true,
            "is_agent": false,
            "is_site_manager": false,
            "is_field_manager": false,
            "is_demo": false,
            "language": "SWA",
            "user_type": "RES",
            "TOU_hours": "",
            "payment_plan": "High Energy User,100.0",
            "integration_id": "",
            "labels": ""
        }
    ]
}